<?xml version="1.0" encoding="UTF-8" standalone="no"?>
<!-- Created with Inkscape (http://www.inkscape.org/) -->

<svg
   xmlns:dc="http://purl.org/dc/elements/1.1/"
   xmlns:cc="http://creativecommons.org/ns#"
   xmlns:rdf="http://www.w3.org/1999/02/22-rdf-syntax-ns#"
   xmlns:svg="http://www.w3.org/2000/svg"
   xmlns="http://www.w3.org/2000/svg"
   xmlns:sodipodi="http://sodipodi.sourceforge.net/DTD/sodipodi-0.dtd"
   xmlns:inkscape="http://www.inkscape.org/namespaces/inkscape"
   width="744.09448819"
   height="1052.3622047"
   id="svg2"
   version="1.1"
   inkscape:version="0.48.2 r9819"
   sodipodi:docname="cobots.svg">
  <defs
     id="defs4" />
  <sodipodi:namedview
     id="base"
     pagecolor="#ffffff"
     bordercolor="#666666"
     borderopacity="1.0"
     inkscape:pageopacity="0.0"
     inkscape:pageshadow="2"
     inkscape:zoom="0.49497475"
     inkscape:cx="533.25595"
     inkscape:cy="541.87796"
     inkscape:document-units="px"
     inkscape:current-layer="layer1"
     showgrid="false"
     inkscape:window-width="1600"
     inkscape:window-height="847"
     inkscape:window-x="-8"
     inkscape:window-y="-8"
     inkscape:window-maximized="0" />
  <metadata
     id="metadata7">
    <rdf:RDF>
      <cc:Work
         rdf:about="">
        <dc:format>image/svg+xml</dc:format>
        <dc:type
           rdf:resource="http://purl.org/dc/dcmitype/StillImage" />
        <dc:title />
      </cc:Work>
    </rdf:RDF>
  </metadata>
  <g
     inkscape:label="Layer 1"
     inkscape:groupmode="layer"
     id="layer1">
    <g
       transform="matrix(0.4613383,0,0,0.4613383,156.63382,916.98165)"
       id="g2009-9-2">
      <path
         style="fill:none;stroke:#00aa00;stroke-width:20;stroke-linecap:butt;stroke-linejoin:miter;stroke-miterlimit:4;stroke-opacity:1;stroke-dasharray:none"
         d="m 683.45592,-1084.7511 c -20.68289,6.7237 -40.40068,17.5136 -61.72856,21.5199 -10.10479,1.8907 -20.00442,2.5906 -28.65217,-3.9757 -17.82162,-5.9297 -30.46156,-20.8348 -46.00717,-30.0529 -11.58284,-1.8102 -23.35925,-5.663 -34.13135,1.0827 -11.81427,3.1548 -22.4258,8.216 -29.92939,18.2033 -48.55177,48.9487 -99.58201,95.53336 -144.55431,147.89607 -45.46239,50.76372 -91.18522,101.38343 -135.31588,153.27881 -9.02898,12.13769 -20.36726,23.155 -21.6403,39.05557 -4.61771,10.16347 1.13445,21.25374 4.9133,30.56 11.3452,13.50919 26.85779,23.39318 44.85311,24.2486 10.00496,2.7775 21.32219,-0.95141 29.51464,-6.51681 52.19415,-51.48306 104.3883,-102.96611 156.58245,-154.44917 -53.1265,52.54904 -106.253,105.09807 -159.3795,157.64711 5.70428,15.08835 3.31283,33.48331 15.97255,45.11403 12.45127,15.97651 34.19252,17.04068 52.88979,16.38566 13.13587,-16.05153 22.65517,-35.04481 39.89647,-47.31581 38.96148,-34.90034 77.92296,-69.80069 116.88444,-104.70104 -44.26786,40.08354 -89.23691,79.53681 -133.06645,120.01433 -6.7052,10.61513 -16.58263,20.35663 -21.40306,31.49083 -1.24886,16.53656 11.28271,30.32058 24.86465,37.67275 16.60974,5.28108 33.65346,5.02226 50.81142,3.30511 16.73729,-4.71655 31.9261,-15.32192 48.0744,-22.27837 42.05374,-19.7245 82.6617,-42.16389 122.69465,-65.68304 31.08089,-18.33045 59.5112,-40.84757 89.48154,-60.93217 38.98327,-43.08284 81.75044,-82.39463 123.72316,-122.49817 -8.85833,-19.318 -15.81993,-40.16344 -25.85354,-58.53499 -12.7256,-10.43489 -28.20314,-10.86475 -38.7708,-23.39549 -8.57723,-12.08217 -17.87228,-30.85586 -19.22942,-46.08361 -4.64502,-14.26518 7.86587,-27.1839 9.51556,-41.3511 0.9511,-9.509 -8.95042,-17.547 -12.23142,-26.4823 -6.2596,-11.0747 -12.51921,-22.1494 -18.77881,-33.2241 z"
         id="path1501-6-0"
         inkscape:connector-curvature="0"
         sodipodi:nodetypes="cccccccccccccccccccccccccccccccc" />
      <path
         style="fill:none;stroke:#00aa00;stroke-width:20;stroke-linecap:butt;stroke-linejoin:miter;stroke-miterlimit:4;stroke-opacity:1;stroke-dasharray:none"
         d="m 703.05562,-889.979 c -48.74406,35.77967 -97.48813,71.55935 -146.23219,107.33902"
         id="path1503-5-7"
         inkscape:connector-curvature="0" />
      <path
         style="fill:none;stroke:#00aa00;stroke-width:20;stroke-linecap:butt;stroke-linejoin:miter;stroke-miterlimit:4;stroke-opacity:1;stroke-dasharray:none"
         d="m 665.08119,-934.99709 c -55.63459,29.29749 -111.26918,58.59497 -166.90377,87.89246"
         id="path1505-7-8"
         inkscape:connector-curvature="0" />
      <path
         style="fill:none;stroke:#00aa00;stroke-width:20;stroke-linecap:butt;stroke-linejoin:miter;stroke-miterlimit:4;stroke-opacity:1;stroke-dasharray:none"
         d="m 653.13764,-995.32743 c -72.27393,25.62254 -144.54785,51.24508 -216.82178,76.86762"
         id="path1507-5-5"
         inkscape:connector-curvature="0" />
      <path
         style="fill:none;stroke:#00aa00;stroke-width:20;stroke-linecap:butt;stroke-linejoin:miter;stroke-miterlimit:4;stroke-opacity:1;stroke-dasharray:none"
         d="m 338.96983,-841.30215 c -30.17239,31.76041 -60.34477,63.52081 -90.51716,95.28122"
         id="path1509-2-8"
         inkscape:connector-curvature="0" />
      <path
         style="fill:none;stroke:#00aa00;stroke-width:20;stroke-linecap:butt;stroke-linejoin:miter;stroke-miterlimit:4;stroke-opacity:1;stroke-dasharray:none"
         d="m 411.73003,-773.73911 c -27.86254,27.71817 -55.72507,55.43635 -83.58761,83.15452"
         id="path1511-0-0"
         inkscape:connector-curvature="0" />
      <path
         style="fill:none;stroke:#00aa00;stroke-width:20;stroke-linecap:butt;stroke-linejoin:miter;stroke-miterlimit:4;stroke-opacity:1;stroke-dasharray:none"
         d="m 383.14567,-619.98987 c 37.82376,-34.64772 75.64751,-69.29543 113.47127,-103.94315"
         id="path1513-0-7"
         inkscape:connector-curvature="0" />
      <path
         style="fill:none;stroke:#00aa00;stroke-width:10.30930042;stroke-linecap:butt;stroke-linejoin:miter;stroke-miterlimit:4;stroke-opacity:1;stroke-dasharray:none"
         d="m 652.79445,-1012.5965 c -28.38735,0.3101 -70.06103,-2.8718 -98.06138,3.392 -19.51654,8.2174 -41.59448,10.03505 -59.20817,22.82037 -22.40194,14.94402 -48.04825,25.82119 -66.19067,46.67616 -1.43092,1.35796 -2.86183,2.71591 -4.29275,4.07386"
         id="path1515-3-2"
         inkscape:connector-curvature="0"
         sodipodi:nodetypes="ccccc" />
      <path
         style="fill:none;stroke:#00aa00;stroke-width:9.96905708;stroke-linecap:butt;stroke-linejoin:miter;stroke-miterlimit:4;stroke-opacity:1;stroke-dasharray:none"
         d="m 674.0147,-922.77981 c -12.41069,11.32058 -25.8129,34.73695 -43.49541,38.96926 -26.42953,6.62218 -53.10444,-3.26984 -79.49135,-6.12362 -11.59829,-2.95624 -23.54822,2.49411 -34.30177,6.19339 -10.18703,5.66379 -20.37408,11.32758 -30.56111,16.99137"
         id="path1517-2-4"
         inkscape:connector-curvature="0"
         sodipodi:nodetypes="ccccc" />
      <path
         style="fill:none;stroke:#00aa00;stroke-width:10;stroke-linecap:butt;stroke-linejoin:miter;stroke-miterlimit:4;stroke-opacity:1;stroke-dasharray:none"
         d="m 714.89755,-877.8988 c -7.4714,13.50659 -15.58627,31.22663 -28.80784,40.06757 -18.83606,13.04724 -42.696,15.54511 -64.9522,11.95414 -16.53257,-1.65051 -33.11364,-3.9252 -49.03883,2.24248 -10.92027,1.95045 -20.90827,16.24674 -29.2487,22.82698"
         id="path1519-5-0"
         inkscape:connector-curvature="0"
         sodipodi:nodetypes="ccccc" />
      <circle
         sodipodi:ry="20.78863"
         sodipodi:rx="20.78863"
         sodipodi:cy="-735.62659"
         sodipodi:cx="237.19217"
         style="fill:#00aa00;fill-opacity:1;fill-rule:evenodd;stroke:none"
         id="path1533-5-2"
         cx="237.19217"
         cy="-735.62659"
         r="20.78863"
         d="m 257.9808,-735.62659 c 0,11.48125 -9.30739,20.78863 -20.78863,20.78863 -11.48124,0 -20.78863,-9.30738 -20.78863,-20.78863 0,-11.48124 9.30739,-20.78863 20.78863,-20.78863 11.48124,0 20.78863,9.30739 20.78863,20.78863 z" />
      <circle
         sodipodi:ry="20.78863"
         sodipodi:rx="20.78863"
         sodipodi:cy="-679.3241"
         sodipodi:cx="315.14954"
         style="fill:#00aa00;fill-opacity:1;fill-rule:evenodd;stroke:none"
         id="path1533-4-2-7"
         cx="315.14954"
         cy="-679.3241"
         r="20.78863"
         d="m 335.93817,-679.3241 c 0,11.48125 -9.30739,20.78863 -20.78863,20.78863 -11.48125,0 -20.78863,-9.30738 -20.78863,-20.78863 0,-11.48124 9.30738,-20.78863 20.78863,-20.78863 11.48124,0 20.78863,9.30739 20.78863,20.78863 z" />
      <circle
         sodipodi:ry="19.257402"
         sodipodi:rx="19.257402"
         sodipodi:cy="-622.30017"
         sodipodi:cx="382.66003"
         style="fill:#00aa00;fill-opacity:1;fill-rule:evenodd;stroke:none"
         id="path1533-45-0-4"
         cx="382.66003"
         cy="-622.30017"
         r="19.257402"
         d="m 401.91744,-622.30017 c 0,10.63557 -8.62184,19.2574 -19.25741,19.2574 -10.63557,0 -19.2574,-8.62183 -19.2574,-19.2574 0,-10.63557 8.62183,-19.2574 19.2574,-19.2574 10.63557,0 19.25741,8.62183 19.25741,19.2574 z" />
      <circle
         sodipodi:ry="24.253401"
         sodipodi:rx="24.253401"
         sodipodi:cy="-879.41473"
         sodipodi:cx="382.71249"
         style="fill:#00aa00;fill-opacity:1;fill-rule:evenodd;stroke:none"
         id="path1556-10-0"
         cx="382.71249"
         cy="-879.41473"
         r="24.253401"
         d="m 406.96589,-879.41473 c 0,13.39478 -10.85861,24.2534 -24.2534,24.2534 -13.39478,0 -24.2534,-10.85862 -24.2534,-24.2534 0,-13.39479 10.85862,-24.2534 24.2534,-24.2534 13.39479,0 24.2534,10.85861 24.2534,24.2534 z" />
      <circle
         sodipodi:ry="24.253401"
         sodipodi:rx="24.253401"
         sodipodi:cy="-808.72388"
         sodipodi:cx="452.42834"
         style="fill:#00aa00;fill-opacity:1;fill-rule:evenodd;stroke:none"
         id="path1556-4-4-4"
         cx="452.42834"
         cy="-808.72388"
         r="24.253401"
         d="m 476.68175,-808.72388 c 0,13.39479 -10.85862,24.2534 -24.25341,24.2534 -13.39478,0 -24.2534,-10.85861 -24.2534,-24.2534 0,-13.39478 10.85862,-24.2534 24.2534,-24.2534 13.39479,0 24.25341,10.85862 24.25341,24.2534 z" />
      <circle
         sodipodi:ry="24.253401"
         sodipodi:rx="24.253401"
         sodipodi:cy="-741.42352"
         sodipodi:cx="512.83893"
         style="fill:#00aa00;fill-opacity:1;fill-rule:evenodd;stroke:none"
         id="path1556-1-9-7"
         cx="512.83893"
         cy="-741.42352"
         r="24.253401"
         d="m 537.09233,-741.42352 c 0,13.39478 -10.85862,24.2534 -24.2534,24.2534 -13.39479,0 -24.2534,-10.85862 -24.2534,-24.2534 0,-13.39479 10.85861,-24.2534 24.2534,-24.2534 13.39478,0 24.2534,10.85861 24.2534,24.2534 z" />
      <rect
         style="fill:#00aa00;fill-opacity:1;fill-rule:evenodd;stroke:none"
         id="rect1579-1-0"
         width="60.633503"
         height="32.915329"
         x="-393.1875"
         y="-862.30908"
         ry="16.457664"
         transform="matrix(0.70093724,0.71322296,-0.71322296,0.70093724,0,0)" />
      <rect
         style="fill:#00aa00;fill-opacity:1;fill-rule:evenodd;stroke:none"
         id="rect1579-0-2-0"
         width="60.633503"
         height="32.915329"
         x="-292.40674"
         y="-863.7301"
         ry="16.457664"
         transform="matrix(0.70093724,0.71322296,-0.71322296,0.70093724,0,0)" />
      <rect
         style="fill:#00aa00;fill-opacity:1;fill-rule:evenodd;stroke:none"
         id="rect1579-8-1-6"
         width="60.633503"
         height="32.915329"
         x="-199.81299"
         y="-862.02313"
         ry="16.457664"
         transform="matrix(0.70093724,0.71322296,-0.71322296,0.70093724,0,0)" />
      <rect
         style="fill:#00aa00;fill-opacity:1;fill-rule:evenodd;stroke:none"
         id="rect1579-4-1-4"
         width="53.792114"
         height="32.861607"
         x="-949.47369"
         y="-815.87256"
         ry="16.430803"
         transform="matrix(0.13844641,0.99036993,-0.99405069,0.10891841,0,0)" />
      <rect
         style="fill:#00aa00;fill-opacity:1;fill-rule:evenodd;stroke:none"
         id="rect1579-4-2-7-4"
         width="53.792114"
         height="32.861607"
         x="-595.65741"
         y="-1046.6453"
         ry="16.430803"
         transform="matrix(0.44894667,0.89355855,-0.90652056,0.42216166,0,0)" />
      <rect
         style="fill:#00aa00;fill-opacity:1;fill-rule:evenodd;stroke:none"
         id="rect1579-4-25-8-1"
         width="53.792114"
         height="32.861607"
         x="-372.56537"
         y="-1122.9562"
         ry="16.430803"
         transform="matrix(0.58347703,0.81212964,-0.82913042,0.55905523,0,0)" />
      <rect
         style="fill:#00aa00;fill-opacity:1;fill-rule:evenodd;stroke:none"
         id="rect1579-4-8-9-6"
         width="73.051292"
         height="44.627041"
         x="-503.43195"
         y="-923.14441"
         ry="22.31352"
         transform="matrix(0.63105073,0.77574157,-0.79417392,0.60769053,0,0)" />
      <rect
         style="fill:#00aa00;fill-opacity:1;fill-rule:evenodd;stroke:none"
         id="rect1579-4-8-0-4-2"
         width="73.051292"
         height="44.627041"
         x="-406.05768"
         y="-931.45276"
         ry="22.31352"
         transform="matrix(0.63105073,0.77574157,-0.79417392,0.60769053,0,0)" />
      <rect
         style="fill:#00aa00;fill-opacity:1;fill-rule:evenodd;stroke:none"
         id="rect1579-4-8-3-0-2"
         width="73.051292"
         height="44.627041"
         x="-167.11171"
         y="-964.20911"
         ry="22.31352"
         transform="matrix(0.75132289,0.65993478,-0.68199689,0.73135507,0,0)" />
      <circle
         sodipodi:ry="12.018426"
         sodipodi:rx="12.018426"
         sodipodi:cy="-775.57977"
         sodipodi:cx="544.14923"
         style="fill:#ffffff;fill-opacity:1;fill-rule:evenodd;stroke:none"
         id="path1556-1-8-6-3"
         cx="544.14923"
         cy="-775.57977"
         r="12.018426"
         d="m 556.16766,-775.57977 c 0,6.63759 -5.38084,12.01842 -12.01843,12.01842 -6.63759,0 -12.01842,-5.38083 -12.01842,-12.01842 0,-6.6376 5.38083,-12.01843 12.01842,-12.01843 6.63759,0 12.01843,5.38083 12.01843,12.01843 z" />
      <circle
         sodipodi:ry="12.018426"
         sodipodi:rx="12.018426"
         sodipodi:cy="-839.13666"
         sodipodi:cx="489.03775"
         style="fill:#ffffff;fill-opacity:1;fill-rule:evenodd;stroke:none"
         id="path1556-1-8-7-6-5"
         cx="489.03775"
         cy="-839.13666"
         r="12.018426"
         d="m 501.05618,-839.13666 c 0,6.6376 -5.38084,12.01843 -12.01843,12.01843 -6.63759,0 -12.01843,-5.38083 -12.01843,-12.01843 0,-6.63759 5.38084,-12.01842 12.01843,-12.01842 6.63759,0 12.01843,5.38083 12.01843,12.01842 z" />
      <circle
         sodipodi:ry="12.018426"
         sodipodi:rx="12.018426"
         sodipodi:cy="-910.16449"
         sodipodi:cx="421.69125"
         style="fill:#ffffff;fill-opacity:1;fill-rule:evenodd;stroke:none"
         id="path1556-1-8-0-7-9"
         cx="421.69125"
         cy="-910.16449"
         r="12.018426"
         d="m 433.70968,-910.16449 c 0,6.63759 -5.38083,12.01843 -12.01843,12.01843 -6.63759,0 -12.01842,-5.38084 -12.01842,-12.01843 0,-6.63759 5.38083,-12.01843 12.01842,-12.01843 6.6376,0 12.01843,5.38084 12.01843,12.01843 z" />
      <circle
         sodipodi:ry="9.8189774"
         sodipodi:rx="9.8189774"
         sodipodi:cy="-1000.3358"
         sodipodi:cx="667.20636"
         style="fill:#ffffff;fill-opacity:1;fill-rule:evenodd;stroke:none"
         id="path1556-1-8-71-0-9"
         cx="667.20636"
         cy="-1000.3358"
         r="9.8189774"
         d="m 677.02534,-1000.3358 c 0,5.42286 -4.39611,9.81896 -9.81898,9.81896 -5.42287,0 -9.81898,-4.3961 -9.81898,-9.81896 0,-5.4229 4.39611,-9.819 9.81898,-9.819 5.42287,0 9.81898,4.3961 9.81898,9.819 z" />
      <circle
         sodipodi:ry="9.277607"
         sodipodi:rx="9.277607"
         sodipodi:cy="-942.83264"
         sodipodi:cx="679.0788"
         style="fill:#ffffff;fill-opacity:1;fill-rule:evenodd;stroke:none"
         id="path1556-1-8-71-3-0-3"
         cx="679.0788"
         cy="-942.83264"
         r="9.277607"
         d="m 688.3564,-942.83264 c 0,5.12388 -4.15372,9.27761 -9.2776,9.27761 -5.12388,0 -9.27761,-4.15373 -9.27761,-9.27761 0,-5.12388 4.15373,-9.27761 9.27761,-9.27761 5.12388,0 9.2776,4.15373 9.2776,9.27761 z" />
      <circle
         sodipodi:ry="9.4941549"
         sodipodi:rx="9.4941549"
         sodipodi:cy="-899.4726"
         sodipodi:cx="715.52197"
         style="fill:#ffffff;fill-opacity:1;fill-rule:evenodd;stroke:none"
         id="path1556-1-8-71-4-2-9"
         cx="715.52197"
         cy="-899.4726"
         r="9.4941549"
         d="m 725.01613,-899.4726 c 0,5.24348 -4.25068,9.49416 -9.49416,9.49416 -5.24347,0 -9.49415,-4.25068 -9.49415,-9.49416 0,-5.24347 4.25068,-9.49415 9.49415,-9.49415 5.24348,0 9.49416,4.25068 9.49416,9.49415 z" />
      <rect
         style="fill:#00aa00;fill-opacity:1;fill-rule:evenodd;stroke:#00aa00;stroke-width:10.75601578;stroke-linecap:round;stroke-linejoin:miter;stroke-miterlimit:4;stroke-opacity:1;stroke-dasharray:none;stroke-dashoffset:0"
         id="rect1725-9-4"
         width="271.91156"
         height="63.478985"
         x="-706.02625"
         y="-1155.3423"
         ry="27.651808"
         transform="matrix(0.40584777,0.91394069,-0.90766925,0.41968623,0,0)"
         rx="11.616076" />
      <circle
         sodipodi:ry="53.899197"
         sodipodi:rx="53.899197"
         sodipodi:cy="-990.42749"
         sodipodi:cx="788.19177"
         style="fill:#00aa00;fill-opacity:1;fill-rule:evenodd;stroke:#00aa00;stroke-width:10;stroke-linecap:round;stroke-linejoin:miter;stroke-miterlimit:4;stroke-opacity:1;stroke-dasharray:none;stroke-dashoffset:0"
         id="path1727-29-3"
         cx="788.19177"
         cy="-990.42749"
         r="53.899197"
         d="m 842.09097,-990.42749 c 0,29.7677 -24.13149,53.8992 -53.8992,53.8992 -29.7677,0 -53.89919,-24.1315 -53.89919,-53.8992 0,-29.76771 24.13149,-53.89921 53.89919,-53.89921 29.76771,0 53.8992,24.1315 53.8992,53.89921 z" />
      <circle
         sodipodi:ry="42.689278"
         sodipodi:rx="42.689278"
         sodipodi:cy="-990.42749"
         sodipodi:cx="788.19177"
         style="fill:#ffffff;fill-opacity:1;fill-rule:evenodd;stroke:#00aa00;stroke-width:7.92020655;stroke-linecap:round;stroke-linejoin:miter;stroke-miterlimit:4;stroke-opacity:1;stroke-dasharray:none;stroke-dashoffset:0"
         id="path1727-2-6-6"
         cx="788.19177"
         cy="-990.42749"
         r="42.689278"
         d="m 830.88105,-990.42749 c 0,23.57664 -19.11264,42.68928 -42.68928,42.68928 -23.57663,0 -42.68928,-19.11264 -42.68928,-42.68928 0,-23.57661 19.11265,-42.68931 42.68928,-42.68931 23.57664,0 42.68928,19.1127 42.68928,42.68931 z" />
      <circle
         sodipodi:ry="28.676874"
         sodipodi:rx="28.676874"
         sodipodi:cy="-990.42749"
         sodipodi:cx="788.19177"
         style="fill:#00aa00;fill-opacity:1;fill-rule:evenodd;stroke:#00aa00;stroke-width:5.32046413;stroke-linecap:round;stroke-linejoin:miter;stroke-miterlimit:4;stroke-opacity:1;stroke-dasharray:none;stroke-dashoffset:0"
         id="path1727-3-3-9"
         cx="788.19177"
         cy="-990.42749"
         r="28.676874"
         d="m 816.86865,-990.42749 c 0,15.8378 -12.83908,28.67687 -28.67688,28.67687 -15.8378,0 -28.67687,-12.83907 -28.67687,-28.67687 0,-15.83781 12.83907,-28.67691 28.67687,-28.67691 15.8378,0 28.67688,12.8391 28.67688,28.67691 z" />
      <path
         style="fill:none;stroke:#ffffff;stroke-width:10;stroke-linecap:butt;stroke-linejoin:miter;stroke-miterlimit:4;stroke-opacity:1;stroke-dasharray:none"
         d="m 737.9676,-1107.4133 30.01206,69.824"
         id="path1792-3-3"
         inkscape:connector-curvature="0" />
      <path
         style="fill:none;stroke:#ffffff;stroke-width:10;stroke-linecap:butt;stroke-linejoin:miter;stroke-miterlimit:4;stroke-opacity:1;stroke-dasharray:none"
         d="m 808.71031,-947.55314 30.01206,69.824"
         id="path1792-1-6-1"
         inkscape:connector-curvature="0" />
      <path
         style="fill:none;stroke:#00aa00;stroke-width:10;stroke-linecap:butt;stroke-linejoin:miter;stroke-miterlimit:4;stroke-opacity:1;stroke-dasharray:none"
         d="m 786.96687,-1109.8632 16.53726,-8.5749 17.14976,-25.1121 80.2363,-44.7118"
         id="path1809-7-9"
         inkscape:connector-curvature="0" />
      <path
         style="fill:none;stroke:#00aa00;stroke-width:10;stroke-linecap:butt;stroke-linejoin:miter;stroke-miterlimit:4;stroke-opacity:1;stroke-dasharray:none"
         d="m 795.54176,-1087.2011 31.84951,-15.3122 17.76224,-26.9496 43.48686,-22.6622"
         id="path1811-6-1"
         inkscape:connector-curvature="0" />
      <path
         style="fill:none;stroke:#00aa00;stroke-width:10;stroke-linecap:butt;stroke-linejoin:miter;stroke-miterlimit:4;stroke-opacity:1;stroke-dasharray:none"
         d="m 801.05416,-1074.9512 86.36122,-45.3244"
         id="path1813-4-3"
         inkscape:connector-curvature="0" />
      <path
         style="fill:none;stroke:#00aa00;stroke-width:10;stroke-linecap:butt;stroke-linejoin:miter;stroke-miterlimit:4;stroke-opacity:1;stroke-dasharray:none"
         d="m 812.07901,-1052.2891 69.82396,-38.5869"
         id="path1815-4-1"
         inkscape:connector-curvature="0" />
      <path
         style="fill:none;stroke:#00aa00;stroke-width:10;stroke-linecap:butt;stroke-linejoin:miter;stroke-miterlimit:4;stroke-opacity:1;stroke-dasharray:none"
         d="m 839.02859,-1032.0769 91.87365,-48.3868"
         id="path1817-1-5"
         inkscape:connector-curvature="0" />
      <path
         style="fill:none;stroke:#00aa00;stroke-width:10;stroke-linecap:butt;stroke-linejoin:miter;stroke-miterlimit:4;stroke-opacity:1;stroke-dasharray:none"
         d="m 850.66592,-1001.4523 65.53652,-35.5245"
         id="path1819-7-6"
         inkscape:connector-curvature="0" />
      <path
         style="fill:none;stroke:#00aa00;stroke-width:10;stroke-linecap:butt;stroke-linejoin:miter;stroke-miterlimit:4;stroke-opacity:1;stroke-dasharray:none"
         d="m 853.72839,-960.41545 108.41088,-58.79915"
         id="path1821-2-0"
         inkscape:connector-curvature="0" />
      <path
         style="fill:none;stroke:#00aa00;stroke-width:10;stroke-linecap:butt;stroke-linejoin:miter;stroke-miterlimit:4;stroke-opacity:1;stroke-dasharray:none"
         d="m 864.75321,-930.4034 13.47481,-22.66217 64.92403,-34.91198"
         id="path1823-9-2"
         inkscape:connector-curvature="0" />
      <path
         style="fill:none;stroke:#00aa00;stroke-width:10;stroke-linecap:butt;stroke-linejoin:miter;stroke-miterlimit:4;stroke-opacity:1;stroke-dasharray:none"
         d="m 871.49061,-918.15358 42.87438,-22.66215"
         id="path1825-5-1"
         inkscape:connector-curvature="0" />
      <path
         style="fill:none;stroke:#00aa00;stroke-width:10;stroke-linecap:butt;stroke-linejoin:miter;stroke-miterlimit:4;stroke-opacity:1;stroke-dasharray:none"
         d="m 874.55309,-903.45381 27.56206,-0.61248 67.37401,-36.74944"
         id="path1827-7-2"
         inkscape:connector-curvature="0" />
      <circle
         sodipodi:ry="17.45599"
         sodipodi:rx="17.45599"
         sodipodi:cy="-1196.5305"
         sodipodi:cx="913.44623"
         style="fill:#00aa00;fill-opacity:1;fill-rule:evenodd;stroke:none"
         id="path1829-9-4"
         cx="913.44623"
         cy="-1196.5305"
         r="17.45599"
         d="m 930.90222,-1196.5305 c 0,9.6407 -7.81531,17.456 -17.45599,17.456 -9.64068,0 -17.45599,-7.8153 -17.45599,-17.456 0,-9.6407 7.81531,-17.456 17.45599,-17.456 9.64068,0 17.45599,7.8153 17.45599,17.456 z" />
      <circle
         sodipodi:ry="13.168553"
         sodipodi:rx="13.168553"
         sodipodi:cy="-1158.25"
         sodipodi:cx="897.21533"
         style="fill:#00aa00;fill-opacity:1;fill-rule:evenodd;stroke:none"
         id="path1829-5-5-9"
         cx="897.21533"
         cy="-1158.25"
         r="13.168553"
         d="m 910.38389,-1158.25 c 0,7.2728 -5.89577,13.1686 -13.16856,13.1686 -7.27279,0 -13.16855,-5.8958 -13.16855,-13.1686 0,-7.2728 5.89576,-13.1686 13.16855,-13.1686 7.27279,0 13.16856,5.8958 13.16856,13.1686 z" />
      <circle
         sodipodi:ry="15.006026"
         sodipodi:rx="15.006026"
         sodipodi:cy="-1127.6255"
         sodipodi:cx="899.66522"
         style="fill:#00aa00;fill-opacity:1;fill-rule:evenodd;stroke:none"
         id="path1829-2-4-5"
         cx="899.66522"
         cy="-1127.6255"
         r="15.006026"
         d="m 914.67125,-1127.6255 c 0,8.2876 -6.71843,15.006 -15.00603,15.006 -8.2876,0 -15.00602,-6.7184 -15.00602,-15.006 0,-8.2876 6.71842,-15.006 15.00602,-15.006 8.2876,0 15.00603,6.7184 15.00603,15.006 z" />
      <circle
         sodipodi:ry="11.943572"
         sodipodi:rx="11.943572"
         sodipodi:cy="-1095.1635"
         sodipodi:cx="890.47791"
         style="fill:#00aa00;fill-opacity:1;fill-rule:evenodd;stroke:none"
         id="path1829-54-5-3"
         cx="890.47791"
         cy="-1095.1635"
         r="11.943572"
         d="m 902.42148,-1095.1635 c 0,6.5963 -5.34732,11.9436 -11.94357,11.9436 -6.59626,0 -11.94358,-5.3473 -11.94358,-11.9436 0,-6.5962 5.34732,-11.9435 11.94358,-11.9435 6.59625,0 11.94357,5.3473 11.94357,11.9435 z" />
      <circle
         sodipodi:ry="15.006026"
         sodipodi:rx="15.006026"
         sodipodi:cy="-1087.8136"
         sodipodi:cx="941.92706"
         style="fill:#00aa00;fill-opacity:1;fill-rule:evenodd;stroke:none"
         id="path1829-6-3-5"
         cx="941.92706"
         cy="-1087.8136"
         r="15.006026"
         d="m 956.93309,-1087.8136 c 0,8.2876 -6.71843,15.006 -15.00603,15.006 -8.2876,0 -15.00602,-6.7184 -15.00602,-15.006 0,-8.2876 6.71842,-15.006 15.00602,-15.006 8.2876,0 15.00603,6.7184 15.00603,15.006 z" />
      <circle
         sodipodi:ry="17.45599"
         sodipodi:rx="17.45599"
         sodipodi:cy="-1041.2643"
         sodipodi:cx="924.16486"
         style="fill:#00aa00;fill-opacity:1;fill-rule:evenodd;stroke:none"
         id="path1829-23-7-3"
         cx="924.16486"
         cy="-1041.2643"
         r="17.45599"
         d="m 941.62085,-1041.2643 c 0,9.6407 -7.81532,17.456 -17.45599,17.456 -9.64068,0 -17.45599,-7.8153 -17.45599,-17.456 0,-9.6407 7.81531,-17.456 17.45599,-17.456 9.64067,0 17.45599,7.8153 17.45599,17.456 z" />
      <circle
         sodipodi:ry="17.45599"
         sodipodi:rx="17.45599"
         sodipodi:cy="-1026.5645"
         sodipodi:cx="973.16412"
         style="fill:#00aa00;fill-opacity:1;fill-rule:evenodd;stroke:none"
         id="path1829-3-0-3"
         cx="973.16412"
         cy="-1026.5645"
         r="17.45599"
         d="m 990.62011,-1026.5645 c 0,9.6407 -7.81531,17.456 -17.45599,17.456 -9.64067,0 -17.45599,-7.8153 -17.45599,-17.456 0,-9.6406 7.81532,-17.4559 17.45599,-17.4559 9.64068,0 17.45599,7.8153 17.45599,17.4559 z" />
      <circle
         sodipodi:ry="9.7998543"
         sodipodi:rx="9.7998543"
         sodipodi:cy="-990.12128"
         sodipodi:cx="947.74579"
         style="fill:#00aa00;fill-opacity:1;fill-rule:evenodd;stroke:none"
         id="path1829-1-9-6"
         cx="947.74579"
         cy="-990.12128"
         r="9.7998543"
         d="m 957.54564,-990.12128 c 0,5.41231 -4.38754,9.79986 -9.79985,9.79986 -5.41231,0 -9.79986,-4.38755 -9.79986,-9.79986 0,-5.41231 4.38755,-9.79985 9.79986,-9.79985 5.41231,0 9.79985,4.38754 9.79985,9.79985 z" />
      <circle
         sodipodi:ry="17.45599"
         sodipodi:rx="17.45599"
         sodipodi:cy="-948.77814"
         sodipodi:cx="927.22723"
         style="fill:#00aa00;fill-opacity:1;fill-rule:evenodd;stroke:none"
         id="path1829-55-5-9"
         cx="927.22723"
         cy="-948.77814"
         r="17.45599"
         d="m 944.68322,-948.77814 c 0,9.64068 -7.81531,17.45599 -17.45599,17.45599 -9.64067,0 -17.45599,-7.81531 -17.45599,-17.45599 0,-9.64067 7.81532,-17.45599 17.45599,-17.45599 9.64068,0 17.45599,7.81532 17.45599,17.45599 z" />
      <circle
         sodipodi:ry="15.312272"
         sodipodi:rx="15.312272"
         sodipodi:cy="-946.6344"
         sodipodi:cx="980.20776"
         style="fill:#00aa00;fill-opacity:1;fill-rule:evenodd;stroke:none"
         id="path1829-7-3-6"
         cx="980.20776"
         cy="-946.6344"
         r="15.312272"
         d="m 995.52004,-946.6344 c 0,8.45673 -6.85554,15.31227 -15.31228,15.31227 -8.45673,0 -15.31227,-6.85554 -15.31227,-15.31227 0,-8.45673 6.85554,-15.31227 15.31227,-15.31227 8.45674,0 15.31228,6.85554 15.31228,15.31227 z" />
      <circle
         sodipodi:ry="9.8189774"
         sodipodi:rx="9.8189774"
         sodipodi:cy="-1196.8369"
         sodipodi:cx="913.7525"
         style="fill:#ffffff;fill-opacity:1;fill-rule:evenodd;stroke:none"
         id="path1556-1-8-71-2-2-7"
         cx="913.7525"
         cy="-1196.8369"
         r="9.8189774"
         d="m 923.57148,-1196.8369 c 0,5.4229 -4.39611,9.819 -9.81898,9.819 -5.42287,0 -9.81897,-4.3961 -9.81897,-9.819 0,-5.4229 4.3961,-9.819 9.81897,-9.819 5.42287,0 9.81898,4.3961 9.81898,9.819 z" />
      <circle
         sodipodi:ry="9.8189774"
         sodipodi:rx="9.8189774"
         sodipodi:cy="-1027.177"
         sodipodi:cx="973.77661"
         style="fill:#ffffff;fill-opacity:1;fill-rule:evenodd;stroke:none"
         id="path1556-1-8-71-9-3-0"
         cx="973.77661"
         cy="-1027.177"
         r="9.8189774"
         d="m 983.59559,-1027.177 c 0,5.4229 -4.39611,9.819 -9.81898,9.819 -5.42287,0 -9.81898,-4.3961 -9.81898,-9.819 0,-5.4229 4.39611,-9.819 9.81898,-9.819 5.42287,0 9.81898,4.3961 9.81898,9.819 z" />
      <circle
         sodipodi:ry="9.8189774"
         sodipodi:rx="9.8189774"
         sodipodi:cy="-1041.7101"
         sodipodi:cx="924.69403"
         style="fill:#ffffff;fill-opacity:1;fill-rule:evenodd;stroke:none"
         id="path1556-1-8-71-45-1-8"
         cx="924.69403"
         cy="-1041.7101"
         r="9.8189774"
         d="m 934.51301,-1041.7101 c 0,5.4229 -4.39611,9.819 -9.81898,9.819 -5.42287,0 -9.81898,-4.3961 -9.81898,-9.819 0,-5.4229 4.39611,-9.819 9.81898,-9.819 5.42287,0 9.81898,4.3961 9.81898,9.819 z" />
      <circle
         sodipodi:ry="9.8189774"
         sodipodi:rx="9.8189774"
         sodipodi:cy="-948.77814"
         sodipodi:cx="927.22736"
         style="fill:#ffffff;fill-opacity:1;fill-rule:evenodd;stroke:none"
         id="path1556-1-8-71-6-8-0"
         cx="927.22736"
         cy="-948.77814"
         r="9.8189774"
         d="m 937.04633,-948.77814 c 0,5.42287 -4.3961,9.81898 -9.81897,9.81898 -5.42288,0 -9.81898,-4.39611 -9.81898,-9.81898 0,-5.42287 4.3961,-9.81897 9.81898,-9.81897 5.42287,0 9.81897,4.3961 9.81897,9.81897 z" />
      <rect
         style="fill:#ffffff;fill-opacity:1;fill-rule:evenodd;stroke:none"
         id="rect1936-3-3"
         width="50.781895"
         height="11.902493"
         x="-353.61688"
         y="-1181.5403"
         rx="0"
         ry="11.902493"
         transform="matrix(0.40093297,0.91610739,-0.85127313,0.52472285,0,0)" />
      <g
         id="g1499-3-2"
         transform="translate(727.63916,-29.399562)"
         style="fill:#000000">
        <path
           inkscape:connector-curvature="0"
           id="path1479-1-2"
           d="m -616.87404,-1112.4205 c 28.69546,29.5253 65.4455,49.1457 101.34457,68.4292 44.47764,-14.818 92.14813,-9.1179 138.22146,-13.1887 34.97223,2.3591 73.62147,-11.0591 105.30182,6.5683 58.90959,29.5823 114.55779,66.93461 160.12261,114.89452 18.001435,28.35414 -5.80481,60.78509 -38.37465,45.13817 -40.61892,-8.57858 -76.29106,-31.45207 -110.61053,-53.8001 -18.09526,-23.30762 -55.61676,-43.74177 -82.53694,-36.54268 -71.81114,80.61014 -143.62228,161.22027 -215.43342,241.8304 -35.14918,5.42778 -51.23182,-33.28089 -68.15855,-56.77609 -14.46591,-34.13672 -53.94782,-41.72775 -85.10512,-54.51109 -16.27907,-5.98566 -41.79475,-8.65503 -23.66506,-28.29835 39.63127,-77.91452 79.26254,-155.82908 118.89381,-233.74358 z"
           style="fill:#000000;fill-opacity:1;fill-rule:evenodd;stroke:#000000;stroke-width:0.26458332px;stroke-linecap:butt;stroke-linejoin:miter;stroke-opacity:1" />
        <path
           inkscape:connector-curvature="0"
           id="path1481-1-0"
           d="m -117.08074,-724.36611 c -10.90239,-43.72424 50.552064,-52.53868 72.323695,-22.89811 20.916451,15.27559 47.8483677,73.1391 6.279873,74.38612 -28.516696,-10.39395 -63.242968,-22.74598 -78.603568,-51.48801 z"
           style="fill:#000000;fill-rule:evenodd;stroke:#000000;stroke-width:0.26458332px;stroke-linecap:butt;stroke-linejoin:miter;stroke-opacity:1" />
        <path
           inkscape:connector-curvature="0"
           id="path1483-9-0"
           d="m -172.51708,-743.42236 c -35.13831,-16.86367 -69.7374,22.90134 -37.32453,50.95442 24.40301,34.01371 60.811,66.6007 104.77132,67.07731 43.125208,-23.66097 -3.09941,-69.52635 -27.68075,-89.06136 -12.46425,-10.68733 -25.85381,-20.26422 -39.76604,-28.97037 z"
           style="fill:#000000;fill-rule:evenodd;stroke:#000000;stroke-width:0.26458332px;stroke-linecap:butt;stroke-linejoin:miter;stroke-opacity:1" />
        <path
           inkscape:connector-curvature="0"
           id="path1485-5-4"
           d="m -253.93922,-703.57748 c 38.60089,25.2762 79.67177,51.5489 103.07696,92.68264 16.93276,33.41612 -19.23564,58.11517 -46.68849,36.08136 -38.06796,-23.02894 -74.53924,-50.79501 -99.69811,-88.05294 -9.96362,-29.30419 17.7819,-44.32547 43.30964,-40.71106 z"
           style="fill:#000000;fill-rule:evenodd;stroke:#000000;stroke-width:0.26458332px;stroke-linecap:butt;stroke-linejoin:miter;stroke-opacity:1" />
        <path
           inkscape:connector-curvature="0"
           id="path1487-8-2"
           d="m -347.48805,-609.16246 c -18.5122,-39.31563 36.24398,-50.19955 54.78372,-22.87425 26.01683,20.21298 59.70958,39.65194 66.68202,74.26171 -3.22943,49.94998 -61.86844,9.1575 -81.6128,-8.53242 -15.1391,-12.40281 -28.51802,-26.9108 -39.85294,-42.85504 z"
           style="fill:#000000;fill-rule:evenodd;stroke:#000000;stroke-width:0.26458332px;stroke-linecap:butt;stroke-linejoin:miter;stroke-opacity:1" />
      </g>
      <rect
         style="fill:#000000;fill-opacity:1;fill-rule:evenodd;stroke:none"
         id="rect1938-1-4"
         width="290.95508"
         height="82.587883"
         x="783.83569"
         y="-467.95099"
         ry="27.262957"
         transform="matrix(0.45702399,-0.88945437,0.89510581,0.44585378,0,0)"
         inkscape:transform-center-x="227.51412"
         inkscape:transform-center-y="-267.05825" />
    </g>
  </g>
</svg>
